{
  "list": [
    {
      "dt": 1611522000,
      "main": {
        "temp": 275.47,
        "feels_like": 271.91,
        "temp_min": 274.78,
        "temp_max": 275.47,
        "pressure": 1002,
        "sea_level": 1002,
        "grnd_level": 975,
        "humidity": 97,
        "temp_kf": 0.69
      },
      "weather": [
        {
          "id": 804,
          "main": "Clouds",
          "description": "overcast clouds",
          "icon": "04n"
        }
      ],
      "clouds": {
        "all": 88
      },
      "wind": {
        "speed": 2.67,
        "deg": 185
      },
      "visibility": 10000,
      "pop": 0.09,
      "sys": {
        "pod": "n"
      },
      "dt_txt": "2021-01-24 21:00:00"
    },
    {
      "dt": 1611532800,
      "main": {
        "temp": 274.5,
        "feels_like": 271.04,
        "temp_min": 274.05,
        "temp_max": 274.5,
        "pressure": 1002,
        "sea_level": 1002,
        "grnd_level": 974,
        "humidity": 96,
        "temp_kf": 0.45
      },
      "weather": [
        {
          "id": 803,
          "main": "Clouds",
          "description": "broken clouds",
          "icon": "04n"
        }
      ],
      "clouds": {
        "all": 71
      },
      "wind": {
        "speed": 2.27,
        "deg": 183
      },
      "visibility": 10000,
      "pop": 0,
      "sys": {
        "pod": "n"
      },
      "dt_txt": "2021-01-25 00:00:00"
    },
    {
      "dt": 1611543600,
      "main": {
        "temp": 274.52,
        "feels_like": 270.67,
        "temp_min": 274.41,
        "temp_max": 274.52,
        "pressure": 1002,
        "sea_level": 1002,
        "grnd_level": 974,
        "humidity": 98,
        "temp_kf": 0.11
      },
      "weather": [
        {
          "id": 802,
          "main": "Clouds",
          "description": "scattered clouds",
          "icon": "03n"
        }
      ],
      "clouds": {
        "all": 33
      },
      "wind": {
        "speed": 2.9,
        "deg": 150
      },
      "visibility": 3078,
      "pop": 0,
      "sys": {
        "pod": "n"
      },
      "dt_txt": "2021-01-25 03:00:00"
    },
    {
      "dt": 1611554400,
      "main": {
        "temp": 275.48,
        "feels_like": 269.85,
        "temp_min": 275.47,
        "temp_max": 275.48,
        "pressure": 1000,
        "sea_level": 1000,
        "grnd_level": 972,
        "humidity": 97,
        "temp_kf": 0.01
      },
      "weather": [
        {
          "id": 803,
          "main": "Clouds",
          "description": "broken clouds",
          "icon": "04d"
        }
      ],
      "clouds": {
        "all": 64
      },
      "wind": {
        "speed": 5.63,
        "deg": 131
      },
      "visibility": 2763,
      "pop": 0,
      "sys": {
        "pod": "d"
      },
      "dt_txt": "2021-01-25 06:00:00"
    },
    {
      "dt": 1611565200,
      "main": {
        "temp": 276.54,
        "feels_like": 269.82,
        "temp_min": 276.54,
        "temp_max": 276.54,
        "pressure": 999,
        "sea_level": 999,
        "grnd_level": 971,
        "humidity": 91,
        "temp_kf": 0
      },
      "weather": [
        {
          "id": 804,
          "main": "Clouds",
          "description": "overcast clouds",
          "icon": "04d"
        }
      ],
      "clouds": {
        "all": 100
      },
      "wind": {
        "speed": 7.22,
        "deg": 133
      },
      "visibility": 10000,
      "pop": 0,
      "sys": {
        "pod": "d"
      },
      "dt_txt": "2021-01-25 09:00:00"
    },
    {
      "dt": 1611576000,
      "main": {
        "temp": 277.74,
        "feels_like": 272.03,
        "temp_min": 277.74,
        "temp_max": 277.74,
        "pressure": 995,
        "sea_level": 995,
        "grnd_level": 968,
        "humidity": 95,
        "temp_kf": 0
      },
      "weather": [
        {
          "id": 804,
          "main": "Clouds",
          "description": "overcast clouds",
          "icon": "04d"
        }
      ],
      "clouds": {
        "all": 100
      },
      "wind": {
        "speed": 6.23,
        "deg": 137
      },
      "visibility": 10000,
      "pop": 0,
      "sys": {
        "pod": "d"
      },
      "dt_txt": "2021-01-25 12:00:00"
    },
    {
      "dt": 1611586800,
      "main": {
        "temp": 278.06,
        "feels_like": 272.49,
        "temp_min": 278.06,
        "temp_max": 278.06,
        "pressure": 994,
        "sea_level": 994,
        "grnd_level": 966,
        "humidity": 96,
        "temp_kf": 0
      },
      "weather": [
        {
          "id": 500,
          "main": "Rain",
          "description": "light rain",
          "icon": "10n"
        }
      ],
      "clouds": {
        "all": 100
      },
      "wind": {
        "speed": 6.16,
        "deg": 134
      },
      "visibility": 7438,
      "pop": 1,
      "rain": {
        "3h": 2.14
      },
      "sys": {
        "pod": "n"
      },
      "dt_txt": "2021-01-25 15:00:00"
    },
    {
      "dt": 1611597600,
      "main": {
        "temp": 278,
        "feels_like": 272.92,
        "temp_min": 278,
        "temp_max": 278,
        "pressure": 992,
        "sea_level": 992,
        "grnd_level": 965,
        "humidity": 96,
        "temp_kf": 0
      },
      "weather": [
        {
          "id": 501,
          "main": "Rain",
          "description": "moderate rain",
          "icon": "10n"
        }
      ],
      "clouds": {
        "all": 100
      },
      "wind": {
        "speed": 5.45,
        "deg": 144
      },
      "visibility": 10000,
      "pop": 1,
      "rain": {
        "3h": 5.34
      },
      "sys": {
        "pod": "n"
      },
      "dt_txt": "2021-01-25 18:00:00"
    },
    {
      "dt": 1611608400,
      "main": {
        "temp": 275.15,
        "feels_like": 269.42,
        "temp_min": 275.15,
        "temp_max": 275.15,
        "pressure": 992,
        "sea_level": 992,
        "grnd_level": 964,
        "humidity": 97,
        "temp_kf": 0
      },
      "weather": [
        {
          "id": 500,
          "main": "Rain",
          "description": "light rain",
          "icon": "10n"
        }
      ],
      "clouds": {
        "all": 100
      },
      "wind": {
        "speed": 5.69,
        "deg": 285
      },
      "visibility": 2086,
      "pop": 1,
      "rain": {
        "3h": 2.44
      },
      "sys": {
        "pod": "n"
      },
      "dt_txt": "2021-01-25 21:00:00"
    },
    {
      "dt": 1611619200,
      "main": {
        "temp": 273.48,
        "feels_like": 267.38,
        "temp_min": 273.48,
        "temp_max": 273.48,
        "pressure": 992,
        "sea_level": 992,
        "grnd_level": 964,
        "humidity": 98,
        "temp_kf": 0
      },
      "weather": [
        {
          "id": 601,
          "main": "Snow",
          "description": "snow",
          "icon": "13n"
        }
      ],
      "clouds": {
        "all": 100
      },
      "wind": {
        "speed": 5.89,
        "deg": 245
      },
      "visibility": 21,
      "pop": 1,
      "snow": {
        "3h": 1.94
      },
      "sys": {
        "pod": "n"
      },
      "dt_txt": "2021-01-26 00:00:00"
    },
    {
      "dt": 1611630000,
      "main": {
        "temp": 272.99,
        "feels_like": 264.94,
        "temp_min": 272.99,
        "temp_max": 272.99,
        "pressure": 994,
        "sea_level": 994,
        "grnd_level": 966,
        "humidity": 96,
        "temp_kf": 0
      },
      "weather": [
        {
          "id": 600,
          "main": "Snow",
          "description": "light snow",
          "icon": "13n"
        }
      ],
      "clouds": {
        "all": 100
      },
      "wind": {
        "speed": 8.52,
        "deg": 246
      },
      "visibility": 10000,
      "pop": 0.94,
      "snow": {
        "3h": 0.81
      },
      "sys": {
        "pod": "n"
      },
      "dt_txt": "2021-01-26 03:00:00"
    },
    {
      "dt": 1611640800,
      "main": {
        "temp": 272.8,
        "feels_like": 264.44,
        "temp_min": 272.8,
        "temp_max": 272.8,
        "pressure": 997,
        "sea_level": 997,
        "grnd_level": 969,
        "humidity": 95,
        "temp_kf": 0
      },
      "weather": [
        {
          "id": 804,
          "main": "Clouds",
          "description": "overcast clouds",
          "icon": "04d"
        }
      ],
      "clouds": {
        "all": 98
      },
      "wind": {
        "speed": 8.89,
        "deg": 241
      },
      "visibility": 10000,
      "pop": 0.5,
      "sys": {
        "pod": "d"
      },
      "dt_txt": "2021-01-26 06:00:00"
    },
    {
      "dt": 1611651600,
      "main": {
        "temp": 273.94,
        "feels_like": 265.54,
        "temp_min": 273.94,
        "temp_max": 273.94,
        "pressure": 1000,
        "sea_level": 1000,
        "grnd_level": 973,
        "humidity": 90,
        "temp_kf": 0
      },
      "weather": [
        {
          "id": 804,
          "main": "Clouds",
          "description": "overcast clouds",
          "icon": "04d"
        }
      ],
      "clouds": {
        "all": 100
      },
      "wind": {
        "speed": 9.03,
        "deg": 246
      },
      "visibility": 10000,
      "pop": 0.01,
      "sys": {
        "pod": "d"
      },
      "dt_txt": "2021-01-26 09:00:00"
    },
    {
      "dt": 1611662400,
      "main": {
        "temp": 273.97,
        "feels_like": 266.37,
        "temp_min": 273.97,
        "temp_max": 273.97,
        "pressure": 1002,
        "sea_level": 1002,
        "grnd_level": 975,
        "humidity": 90,
        "temp_kf": 0
      },
      "weather": [
        {
          "id": 804,
          "main": "Clouds",
          "description": "overcast clouds",
          "icon": "04d"
        }
      ],
      "clouds": {
        "all": 100
      },
      "wind": {
        "speed": 7.89,
        "deg": 245
      },
      "visibility": 10000,
      "pop": 0,
      "sys": {
        "pod": "d"
      },
      "dt_txt": "2021-01-26 12:00:00"
    },
    {
      "dt": 1611673200,
      "main": {
        "temp": 273.41,
        "feels_like": 266.8,
        "temp_min": 273.41,
        "temp_max": 273.41,
        "pressure": 1005,
        "sea_level": 1005,
        "grnd_level": 977,
        "humidity": 93,
        "temp_kf": 0
      },
      "weather": [
        {
          "id": 804,
          "main": "Clouds",
          "description": "overcast clouds",
          "icon": "04n"
        }
      ],
      "clouds": {
        "all": 99
      },
      "wind": {
        "speed": 6.45,
        "deg": 256
      },
      "visibility": 10000,
      "pop": 0,
      "sys": {
        "pod": "n"
      },
      "dt_txt": "2021-01-26 15:00:00"
    },
    {
      "dt": 1611684000,
      "main": {
        "temp": 272.74,
        "feels_like": 266.11,
        "temp_min": 272.74,
        "temp_max": 272.74,
        "pressure": 1006,
        "sea_level": 1006,
        "grnd_level": 978,
        "humidity": 94,
        "temp_kf": 0
      },
      "weather": [
        {
          "id": 804,
          "main": "Clouds",
          "description": "overcast clouds",
          "icon": "04n"
        }
      ],
      "clouds": {
        "all": 97
      },
      "wind": {
        "speed": 6.39,
        "deg": 253
      },
      "visibility": 10000,
      "pop": 0,
      "sys": {
        "pod": "n"
      },
      "dt_txt": "2021-01-26 18:00:00"
    },
    {
      "dt": 1611694800,
      "main": {
        "temp": 271.49,
        "feels_like": 265.69,
        "temp_min": 271.49,
        "temp_max": 271.49,
        "pressure": 1007,
        "sea_level": 1007,
        "grnd_level": 979,
        "humidity": 96,
        "temp_kf": 0
      },
      "weather": [
        {
          "id": 803,
          "main": "Clouds",
          "description": "broken clouds",
          "icon": "04n"
        }
      ],
      "clouds": {
        "all": 60
      },
      "wind": {
        "speed": 5.02,
        "deg": 264
      },
      "visibility": 10000,
      "pop": 0,
      "sys": {
        "pod": "n"
      },
      "dt_txt": "2021-01-26 21:00:00"
    },
    {
      "dt": 1611705600,
      "main": {
        "temp": 270.77,
        "feels_like": 265.6,
        "temp_min": 270.77,
        "temp_max": 270.77,
        "pressure": 1008,
        "sea_level": 1008,
        "grnd_level": 980,
        "humidity": 96,
        "temp_kf": 0
      },
      "weather": [
        {
          "id": 803,
          "main": "Clouds",
          "description": "broken clouds",
          "icon": "04n"
        }
      ],
      "clouds": {
        "all": 53
      },
      "wind": {
        "speed": 3.99,
        "deg": 250
      },
      "visibility": 10000,
      "pop": 0,
      "sys": {
        "pod": "n"
      },
      "dt_txt": "2021-01-27 00:00:00"
    },
    {
      "dt": 1611716400,
      "main": {
        "temp": 270.59,
        "feels_like": 265.79,
        "temp_min": 270.59,
        "temp_max": 270.59,
        "pressure": 1007,
        "sea_level": 1007,
        "grnd_level": 979,
        "humidity": 96,
        "temp_kf": 0
      },
      "weather": [
        {
          "id": 804,
          "main": "Clouds",
          "description": "overcast clouds",
          "icon": "04n"
        }
      ],
      "clouds": {
        "all": 100
      },
      "wind": {
        "speed": 3.43,
        "deg": 270
      },
      "visibility": 10000,
      "pop": 0,
      "sys": {
        "pod": "n"
      },
      "dt_txt": "2021-01-27 03:00:00"
    },
    {
      "dt": 1611727200,
      "main": {
        "temp": 270.81,
        "feels_like": 265.96,
        "temp_min": 270.81,
        "temp_max": 270.81,
        "pressure": 1007,
        "sea_level": 1007,
        "grnd_level": 979,
        "humidity": 95,
        "temp_kf": 0
      },
      "weather": [
        {
          "id": 804,
          "main": "Clouds",
          "description": "overcast clouds",
          "icon": "04d"
        }
      ],
      "clouds": {
        "all": 100
      },
      "wind": {
        "speed": 3.52,
        "deg": 292
      },
      "visibility": 10000,
      "pop": 0,
      "sys": {
        "pod": "d"
      },
      "dt_txt": "2021-01-27 06:00:00"
    },
    {
      "dt": 1611738000,
      "main": {
        "temp": 271.92,
        "feels_like": 266.66,
        "temp_min": 271.92,
        "temp_max": 271.92,
        "pressure": 1007,
        "sea_level": 1007,
        "grnd_level": 979,
        "humidity": 94,
        "temp_kf": 0
      },
      "weather": [
        {
          "id": 804,
          "main": "Clouds",
          "description": "overcast clouds",
          "icon": "04d"
        }
      ],
      "clouds": {
        "all": 100
      },
      "wind": {
        "speed": 4.27,
        "deg": 322
      },
      "visibility": 10000,
      "pop": 0,
      "sys": {
        "pod": "d"
      },
      "dt_txt": "2021-01-27 09:00:00"
    },
    {
      "dt": 1611748800,
      "main": {
        "temp": 271.99,
        "feels_like": 267.12,
        "temp_min": 271.99,
        "temp_max": 271.99,
        "pressure": 1006,
        "sea_level": 1006,
        "grnd_level": 978,
        "humidity": 95,
        "temp_kf": 0
      },
      "weather": [
        {
          "id": 804,
          "main": "Clouds",
          "description": "overcast clouds",
          "icon": "04d"
        }
      ],
      "clouds": {
        "all": 100
      },
      "wind": {
        "speed": 3.76,
        "deg": 338
      },
      "visibility": 10000,
      "pop": 0.06,
      "sys": {
        "pod": "d"
      },
      "dt_txt": "2021-01-27 12:00:00"
    },
    {
      "dt": 1611759600,
      "main": {
        "temp": 270.97,
        "feels_like": 264.76,
        "temp_min": 270.97,
        "temp_max": 270.97,
        "pressure": 1005,
        "sea_level": 1005,
        "grnd_level": 976,
        "humidity": 96,
        "temp_kf": 0
      },
      "weather": [
        {
          "id": 600,
          "main": "Snow",
          "description": "light snow",
          "icon": "13n"
        }
      ],
      "clouds": {
        "all": 100
      },
      "wind": {
        "speed": 5.51,
        "deg": 340
      },
      "visibility": 10000,
      "pop": 0.33,
      "snow": {
        "3h": 0.15
      },
      "sys": {
        "pod": "n"
      },
      "dt_txt": "2021-01-27 15:00:00"
    },
    {
      "dt": 1611770400,
      "main": {
        "temp": 270.77,
        "feels_like": 264.58,
        "temp_min": 270.77,
        "temp_max": 270.77,
        "pressure": 1004,
        "sea_level": 1004,
        "grnd_level": 976,
        "humidity": 95,
        "temp_kf": 0
      },
      "weather": [
        {
          "id": 804,
          "main": "Clouds",
          "description": "overcast clouds",
          "icon": "04n"
        }
      ],
      "clouds": {
        "all": 100
      },
      "wind": {
        "speed": 5.42,
        "deg": 333
      },
      "visibility": 10000,
      "pop": 0,
      "sys": {
        "pod": "n"
      },
      "dt_txt": "2021-01-27 18:00:00"
    },
    {
      "dt": 1611781200,
      "main": {
        "temp": 271.02,
        "feels_like": 265.12,
        "temp_min": 271.02,
        "temp_max": 271.02,
        "pressure": 1003,
        "sea_level": 1003,
        "grnd_level": 975,
        "humidity": 95,
        "temp_kf": 0
      },
      "weather": [
        {
          "id": 600,
          "main": "Snow",
          "description": "light snow",
          "icon": "13n"
        }
      ],
      "clouds": {
        "all": 100
      },
      "wind": {
        "speed": 5.05,
        "deg": 341
      },
      "visibility": 10000,
      "pop": 0.26,
      "snow": {
        "3h": 0.1
      },
      "sys": {
        "pod": "n"
      },
      "dt_txt": "2021-01-27 21:00:00"
    },
    {
      "dt": 1611792000,
      "main": {
        "temp": 271.26,
        "feels_like": 265.27,
        "temp_min": 271.26,
        "temp_max": 271.26,
        "pressure": 1002,
        "sea_level": 1002,
        "grnd_level": 974,
        "humidity": 95,
        "temp_kf": 0
      },
      "weather": [
        {
          "id": 804,
          "main": "Clouds",
          "description": "overcast clouds",
          "icon": "04n"
        }
      ],
      "clouds": {
        "all": 100
      },
      "wind": {
        "speed": 5.23,
        "deg": 328
      },
      "visibility": 8597,
      "pop": 0.06,
      "sys": {
        "pod": "n"
      },
      "dt_txt": "2021-01-28 00:00:00"
    },
    {
      "dt": 1611802800,
      "main": {
        "temp": 271.08,
        "feels_like": 264.39,
        "temp_min": 271.08,
        "temp_max": 271.08,
        "pressure": 1000,
        "sea_level": 1000,
        "grnd_level": 972,
        "humidity": 96,
        "temp_kf": 0
      },
      "weather": [
        {
          "id": 804,
          "main": "Clouds",
          "description": "overcast clouds",
          "icon": "04n"
        }
      ],
      "clouds": {
        "all": 100
      },
      "wind": {
        "speed": 6.22,
        "deg": 319
      },
      "visibility": 8117,
      "pop": 0.03,
      "sys": {
        "pod": "n"
      },
      "dt_txt": "2021-01-28 03:00:00"
    },
    {
      "dt": 1611813600,
      "main": {
        "temp": 271.04,
        "feels_like": 264.2,
        "temp_min": 271.04,
        "temp_max": 271.04,
        "pressure": 1000,
        "sea_level": 1000,
        "grnd_level": 972,
        "humidity": 96,
        "temp_kf": 0
      },
      "weather": [
        {
          "id": 804,
          "main": "Clouds",
          "description": "overcast clouds",
          "icon": "04d"
        }
      ],
      "clouds": {
        "all": 100
      },
      "wind": {
        "speed": 6.43,
        "deg": 307
      },
      "visibility": 10000,
      "pop": 0.03,
      "sys": {
        "pod": "d"
      },
      "dt_txt": "2021-01-28 06:00:00"
    },
    {
      "dt": 1611824400,
      "main": {
        "temp": 271.35,
        "feels_like": 264.51,
        "temp_min": 271.35,
        "temp_max": 271.35,
        "pressure": 999,
        "sea_level": 999,
        "grnd_level": 971,
        "humidity": 97,
        "temp_kf": 0
      },
      "weather": [
        {
          "id": 600,
          "main": "Snow",
          "description": "light snow",
          "icon": "13d"
        }
      ],
      "clouds": {
        "all": 100
      },
      "wind": {
        "speed": 6.5,
        "deg": 296
      },
      "visibility": 246,
      "pop": 0.83,
      "snow": {
        "3h": 0.29
      },
      "sys": {
        "pod": "d"
      },
      "dt_txt": "2021-01-28 09:00:00"
    },
    {
      "dt": 1611835200,
      "main": {
        "temp": 272.02,
        "feels_like": 265.29,
        "temp_min": 272.02,
        "temp_max": 272.02,
        "pressure": 999,
        "sea_level": 999,
        "grnd_level": 971,
        "humidity": 96,
        "temp_kf": 0
      },
      "weather": [
        {
          "id": 600,
          "main": "Snow",
          "description": "light snow",
          "icon": "13d"
        }
      ],
      "clouds": {
        "all": 100
      },
      "wind": {
        "speed": 6.44,
        "deg": 279
      },
      "visibility": 719,
      "pop": 0.99,
      "snow": {
        "3h": 0.64
      },
      "sys": {
        "pod": "d"
      },
      "dt_txt": "2021-01-28 12:00:00"
    },
    {
      "dt": 1611846000,
      "main": {
        "temp": 271.39,
        "feels_like": 264.91,
        "temp_min": 271.39,
        "temp_max": 271.39,
        "pressure": 1000,
        "sea_level": 1000,
        "grnd_level": 972,
        "humidity": 97,
        "temp_kf": 0
      },
      "weather": [
        {
          "id": 600,
          "main": "Snow",
          "description": "light snow",
          "icon": "13n"
        }
      ],
      "clouds": {
        "all": 100
      },
      "wind": {
        "speed": 5.99,
        "deg": 271
      },
      "visibility": 1463,
      "pop": 0.87,
      "snow": {
        "3h": 0.27
      },
      "sys": {
        "pod": "n"
      },
      "dt_txt": "2021-01-28 15:00:00"
    },
    {
      "dt": 1611856800,
      "main": {
        "temp": 271.2,
        "feels_like": 264.55,
        "temp_min": 271.2,
        "temp_max": 271.2,
        "pressure": 1001,
        "sea_level": 1001,
        "grnd_level": 973,
        "humidity": 97,
        "temp_kf": 0
      },
      "weather": [
        {
          "id": 600,
          "main": "Snow",
          "description": "light snow",
          "icon": "13n"
        }
      ],
      "clouds": {
        "all": 99
      },
      "wind": {
        "speed": 6.21,
        "deg": 264
      },
      "visibility": 1927,
      "pop": 0.42,
      "snow": {
        "3h": 0.18
      },
      "sys": {
        "pod": "n"
      },
      "dt_txt": "2021-01-28 18:00:00"
    },
    {
      "dt": 1611867600,
      "main": {
        "temp": 270.8,
        "feels_like": 264.09,
        "temp_min": 270.8,
        "temp_max": 270.8,
        "pressure": 1002,
        "sea_level": 1002,
        "grnd_level": 974,
        "humidity": 96,
        "temp_kf": 0
      },
      "weather": [
        {
          "id": 804,
          "main": "Clouds",
          "description": "overcast clouds",
          "icon": "04n"
        }
      ],
      "clouds": {
        "all": 100
      },
      "wind": {
        "speed": 6.2,
        "deg": 264
      },
      "visibility": 2203,
      "pop": 0,
      "sys": {
        "pod": "n"
      },
      "dt_txt": "2021-01-28 21:00:00"
    },
    {
      "dt": 1611878400,
      "main": {
        "temp": 270.46,
        "feels_like": 264.12,
        "temp_min": 270.46,
        "temp_max": 270.46,
        "pressure": 1003,
        "sea_level": 1003,
        "grnd_level": 975,
        "humidity": 94,
        "temp_kf": 0
      },
      "weather": [
        {
          "id": 600,
          "main": "Snow",
          "description": "light snow",
          "icon": "13n"
        }
      ],
      "clouds": {
        "all": 100
      },
      "wind": {
        "speed": 5.57,
        "deg": 258
      },
      "visibility": 10000,
      "pop": 0.2,
      "snow": {
        "3h": 0.11
      },
      "sys": {
        "pod": "n"
      },
      "dt_txt": "2021-01-29 00:00:00"
    },
    {
      "dt": 1611889200,
      "main": {
        "temp": 270.22,
        "feels_like": 264.41,
        "temp_min": 270.22,
        "temp_max": 270.22,
        "pressure": 1003,
        "sea_level": 1003,
        "grnd_level": 974,
        "humidity": 95,
        "temp_kf": 0
      },
      "weather": [
        {
          "id": 804,
          "main": "Clouds",
          "description": "overcast clouds",
          "icon": "04n"
        }
      ],
      "clouds": {
        "all": 100
      },
      "wind": {
        "speed": 4.79,
        "deg": 250
      },
      "visibility": 10000,
      "pop": 0,
      "sys": {
        "pod": "n"
      },
      "dt_txt": "2021-01-29 03:00:00"
    },
    {
      "dt": 1611900000,
      "main": {
        "temp": 269.29,
        "feels_like": 264.15,
        "temp_min": 269.29,
        "temp_max": 269.29,
        "pressure": 1003,
        "sea_level": 1003,
        "grnd_level": 974,
        "humidity": 96,
        "temp_kf": 0
      },
      "weather": [
        {
          "id": 804,
          "main": "Clouds",
          "description": "overcast clouds",
          "icon": "04d"
        }
      ],
      "clouds": {
        "all": 92
      },
      "wind": {
        "speed": 3.7,
        "deg": 205
      },
      "visibility": 10000,
      "pop": 0,
      "sys": {
        "pod": "d"
      },
      "dt_txt": "2021-01-29 06:00:00"
    },
    {
      "dt": 1611910800,
      "main": {
        "temp": 271.54,
        "feels_like": 266.04,
        "temp_min": 271.54,
        "temp_max": 271.54,
        "pressure": 1002,
        "sea_level": 1002,
        "grnd_level": 974,
        "humidity": 92,
        "temp_kf": 0
      },
      "weather": [
        {
          "id": 803,
          "main": "Clouds",
          "description": "broken clouds",
          "icon": "04d"
        }
      ],
      "clouds": {
        "all": 77
      },
      "wind": {
        "speed": 4.49,
        "deg": 180
      },
      "visibility": 10000,
      "pop": 0,
      "sys": {
        "pod": "d"
      },
      "dt_txt": "2021-01-29 09:00:00"
    },
    {
      "dt": 1611921600,
      "main": {
        "temp": 272.75,
        "feels_like": 267.18,
        "temp_min": 272.75,
        "temp_max": 272.75,
        "pressure": 999,
        "sea_level": 999,
        "grnd_level": 971,
        "humidity": 90,
        "temp_kf": 0
      },
      "weather": [
        {
          "id": 804,
          "main": "Clouds",
          "description": "overcast clouds",
          "icon": "04d"
        }
      ],
      "clouds": {
        "all": 88
      },
      "wind": {
        "speed": 4.76,
        "deg": 172
      },
      "visibility": 10000,
      "pop": 0.07,
      "sys": {
        "pod": "d"
      },
      "dt_txt": "2021-01-29 12:00:00"
    },
    {
      "dt": 1611932400,
      "main": {
        "temp": 270.96,
        "feels_like": 265.99,
        "temp_min": 270.96,
        "temp_max": 270.96,
        "pressure": 998,
        "sea_level": 998,
        "grnd_level": 970,
        "humidity": 96,
        "temp_kf": 0
      },
      "weather": [
        {
          "id": 600,
          "main": "Snow",
          "description": "light snow",
          "icon": "13n"
        }
      ],
      "clouds": {
        "all": 100
      },
      "wind": {
        "speed": 3.74,
        "deg": 147
      },
      "visibility": 1189,
      "pop": 0.42,
      "snow": {
        "3h": 0.11
      },
      "sys": {
        "pod": "n"
      },
      "dt_txt": "2021-01-29 15:00:00"
    },
    {
      "dt": 1611943200,
      "main": {
        "temp": 270.02,
        "feels_like": 265.07,
        "temp_min": 270.02,
        "temp_max": 270.02,
        "pressure": 997,
        "sea_level": 997,
        "grnd_level": 969,
        "humidity": 98,
        "temp_kf": 0
      },
      "weather": [
        {
          "id": 600,
          "main": "Snow",
          "description": "light snow",
          "icon": "13n"
        }
      ],
      "clouds": {
        "all": 100
      },
      "wind": {
        "speed": 3.59,
        "deg": 125
      },
      "visibility": 298,
      "pop": 1,
      "snow": {
        "3h": 1.4
      },
      "sys": {
        "pod": "n"
      },
      "dt_txt": "2021-01-29 18:00:00"
    }
  ],
  "city": {
    "id": 686967,
    "name": "Zhytomyr",
    "coord": {
      "lat": 50.2649,
      "lon": 28.6767
    },
    "country": "UA",
    "population": 282192,
    "timezone": 7200,
    "sunrise": 1611467408,
    "sunset": 1611499460
  }
}
